"NR_4.0_29909.1","4V9Q|1|DV","4V9Q|1|DV,4V9Q|1|BV,4V9Q|1|BW,4V9Q|1|DW"
"NR_4.0_88410.1","5IMQ|1|4","5IMQ|1|4"
"NR_4.0_35542.37","4V9R|1|AX","4V9R|1|AX,4V9S|1|AX,5J30|1|QV,4TUA|1|QV,4TUD|1|QV,5J3C|1|QV,5U9G|1|W,4P70|1|XV,4V5F|1|AV,4V9S|1|CX,4V9R|1|CX,3JCE|1|8,4V7M|1|AX,4V63|1|AY,4V67|1|AY,4V87|1|BC,4V8F|1|CC,4V9I|1|CV,4V6A|1|CW,4V63|1|CY,4V67|1|CY,4V8C|1|DC,4YZV|1|QV,4TUB|1|QV,5UYM|1|W,4TUB|1|XV,5J30|1|XV,4TUD|1|XV,5J3C|1|XV,5MDV|1|5,5LZD|1|v,4V5F|1|CV,4Z3S|1|1x,5DOY|1|2x,5L4O|1|A,5KPS|1|31,5KPW|1|31,5KPS|1|32,4V8B|1|AC,4V67|1|AZ,4V63|1|AZ,4V8E|1|BC,4V8Q|1|BV,4V6G|1|CC,4V8B|1|CC,4V8C|1|CC,4V8J|1|CV,4V63|1|CZ,4V67|1|CZ,4V8E|1|DC,5D8B|1|ED,5D8B|1|FD,4TUC|1|QV,4ZSN|1|QV,4P70|1|QV,4LT8|1|QV,5UYK|1|W,5UYP|1|W,5U9F|1|W,5UYL|1|X,5CZP|1|XV,4LNT|1|XV,4W4G|1|XV,4P6F|1|XV,4LT8|1|XV,4YZV|1|XV,5DFE|1|XV,5HCR|1|1x,5HCP|1|1x,5HCQ|1|1x,4Y4P|1|1x,4WRO|1|2K,4Y4P|1|2x,4Z8C|1|2x,3CW5|1|A,4W2I|1|AX,4W2G|1|AX,4W2F|1|AX,1VY5|1|AX,4W2H|1|AX,4W2I|1|CX,4W2G|1|CX,4W2F|1|CX,1VY5|1|CX,5MDY|1|5,5MDW|1|5,5MDZ|1|5,5H5U|1|5,4V5C|1|AV,5DOY|1|1x,5IBB|1|2L,4Z3S|1|2x,1VY6|1|AX,1VY4|1|AX,1VY7|1|AX,1VY6|1|CX,4WPO|1|DX,5KPX|1|31,4V8D|1|AC,4V9I|1|AV,4V6A|1|AW,4V87|1|CC,4V7M|1|CX,4LNT|1|QV,4YPB|1|QV,5DFE|1|QV,4P6F|1|QV,5UYL|1|W,5UYK|1|X,5UYP|1|X,5UYQ|1|X,5UYN|1|X,4TUC|1|XV,4YPB|1|XV,4ZSN|1|XV,4TUA|1|XV,5U4I|1|y,5HAU|1|1w,4Z8C|1|1x,5J4B|1|1x,4ZER|1|1x,5HD1|1|1x,5IB7|1|2K,5EL4|1|2K,4WQR|1|2K,4WT1|1|2K,4WSD|1|2K,5EL6|1|2K,5EL7|1|2K,5IBB|1|2K,5HAU|1|2w,5J4C|1|2x,4ZER|1|2x,5HCQ|1|2x,5HD1|1|2x,5HCP|1|2x,5HCR|1|2x,5J4B|1|2x,3CW6|1|A,4WQY|1|BX,5KPX|1|32,4V8D|1|CC,4V97|1|CV,4L71|1|QV,5CZP|1|QV,4LEL|1|QV,1VVJ|1|QV,4W4G|1|QV,4LFZ|1|QV,4LSK|1|QV,5UYQ|1|W,5UYN|1|W,4LFZ|1|XV,4LEL|1|XV,4LSK|1|XV,4L71|1|XV,1VVJ|1|XV,4WR6|1|2K,4WPO|1|BX,4V6G|1|CB,5F8K|1|1x,5J4C|1|1x,5EL5|1|2K,4WQ1|1|2K,5E7K|1|2K,5IB8|1|2K,4WQ1|1|2L,4WSD|1|2L,5EL6|1|2L,5F8K|1|2x,4W2H|1|CX,4WQY|1|DX,4V51|1|AV,4V51|1|CV,4V5F|1|CW,4WRA|1|2L,4WZO|1|2L,5J4D|1|IA,5J4D|1|NC,5LZA|1|v,4V6G|1|AC,4V5K|1|AV,4V97|1|AV,4V7P|1|AW,4V7L|1|AX,5D8B|1|BD,4V7P|1|DW,5D8B|1|XC,5U4I|1|x,1VY4|1|CX,1VY7|1|CX,4WZO|1|1K,4WZO|1|2K,5IB7|1|2L,5E7K|1|2L,5IB8|1|2L,2FMT|1|C,2FMT|1|D,5LMU|1|Z,4V5C|1|CV,4WRA|1|2K,3J9Y|1|v,5AFI|1|v,5KPW|1|32,4V8F|1|BC,4V6G|1|CD,5U9F|1|X,5UYM|1|X,5U9G|1|X,5EL4|1|2L,4WRO|1|2L,5IQR|1|5,5J4D|1|D,5J4D|1|IB,5L3P|1|x,4V8J|1|AV,4V5K|1|CV,5EL5|1|2L,4WT1|1|2L,4WQR|1|2L,5EL7|1|2L,4YPB|1|QW,4W4G|1|QW,4W4G|1|XW,4YPB|1|XW,4WR6|1|2L,3JCJ|1|v,4V6G|1|AD,4V7L|1|CX,4V5F|1|AW,4V8Q|1|BW,4V8O|1|AV,5U4J|1|x+5U4J|1|z,4V8C|1|CD,4V8B|1|AD,4V87|1|CD,4V8C|1|DD,4V87|1|BD,4V8B|1|CD,5AFI|1|w,3QSY|1|D,4V5K|1|AW,4V5K|1|CW"
"NR_4.0_20721.6","4V9B|1|AC","4V9B|1|AC,4V95|1|AV,4V8X|1|CV,4V9A|1|AC,4V9N|1|AW,4V9N|1|CW,3J9Z|1|S6,5J8B|1|x,4V8X|1|AV,4V7J|1|Av,4V7J|1|Bv,4V9B|1|CC,4V95|1|CV,5E81|1|2K,5E81|1|2L,4V7K|1|Bv,4WT8|1|C4,4V9A|1|CC,4L47|1|QV,3JA1|1|S2,4L47|1|XV,4V7K|1|Av,4V8U|1|AW,4V8U|1|CW,4V4J|1|z,4V9B|1|AD,4V7K|1|Bw,4V8X|1|CW,4V5A|1|AW,4V7K|1|Aw,4V8X|1|AW,4V7J|1|Bw,4V7J|1|Aw,4V5A|1|CW,4V9B|1|CD"
"NR_4.0_47349.1","4WT8|1|D4","4WT8|1|D4"
"NR_4.blabla","1TRA|1|A","blab|1|AX